N. of chains: 32
Average chains' length: 10.53125
Variance chains' length: 9.1865234375
25th quartile chains' length: 7.75
25th quartile chains' length: 13.25
Max chains' length: 5
Min chains' length: 14
